I 21491
R 319829
P 175662
R 537035
W 555524
W 98838
W 114641
I 68180
W 107617
R 768188
R 914322
P 125351
R 33244
W 571779
R 131582
P 962782
I 182004
W 946891
I 710987
R 393687
R 64206
P 79569
W 842670
P 491185
W 672777
R 28244
I 1020074
R 801340
I 344380
P 495789
P 681710
R 922128
W 930615
W 720973
R 486502
P 838155
I 591119
I 480352
R 748823
W 602557
P 204690
P 594949
W 624671
R 99772
W 820789
W 133409
W 302897
R 247177
I 95206
I 315447