P 0
R 32768
W 65536
P 98304
R 131072
W 163840
P 196608
R 229376
W 262144
P 294912
R 327680
W 360448
P 393216
R 425984
W 458752
P 491520
R 524288
W 557056
P 589824
R 622592
W 655360
P 688128
R 720896
W 753664
P 786432
R 819200
W 851968
P 884736
R 917504
W 950272
P 983040
R 1015808